dplyr I
…
---

### Sort in the descending order of price.

--

``` r
temp %>% arrange(desc(price))
```

```
# A tibble: 35 × 4
   roll_num        sale_year    price neigh_label   
   <chr>               <dbl>    <dbl> <chr>         
 1 028589118930012      2017 10180000 Harbour       
 2 1018100              2017  8800000 Highland Area 
 3 028589118590050      2017  8700000 Harbour       
 4 028589118590004      2017  7600000 Harbour       
 5 029138614930289      2017  7400000 Downtown South
 6 029138614930289      2017  7400000 Downtown South
 7 029138614930289      2017  7400000 Downtown South
 8 029138614930289      2017  7400000 Downtown South
 9 029138614930289      2017  7400000 Downtown South
10 029138614930289      2017  7400000 Downtown South
# ℹ 25 more rows
```
…
