dplyr 2
…
---

#### Load pumf dataset and calculate population size by CMA

.scroll-output-80[
.tiny[

``` r
pumf %>% group_by(CMA) %>% 
  summarise(pop = sum(WEIGHT))
```

```
# A tibble: 24 × 2
   CMA                              pop
   <fct>                          <dbl>
 1 Halifax                      459286.
 2 Moncton –  Saint John        282107.
 3 Québec                       818955.
 4 Montréal                    4210000.
 5 Sherbrooke – Trois-Rivières  372390.
 6 Ottawa - Gatineau           1478890.
 7 Oshawa                       415157.
 8 Toronto                     6130098.
 9 Hamilton                     777202.
10 St. Catharines – Niagara     424602.
# ℹ 14 more rows
```
…
---

#### Remove observaions where CMA is "Other census metropolitan areas, census agglomerations and other geographies".

.scroll-output-80[
.tiny[

``` r
pumf %>% group_by(CMA) %>% 
  summarise(pop = sum(WEIGHT)) %>% 
  filter(CMA != "Other census metropolitan areas, census agglomerations and other geographies")
```

```
# A tibble: 23 × 2
   CMA                              pop
   <fct>                          <dbl>
 1 Halifax                      459286.
 2 Moncton –  Saint John        282107.
 3 Québec                       818955.
 4 Montréal                    4210000.
 5 Sherbrooke – Trois-Rivières  372390.
 6 Ottawa - Gatineau           1478890.
 7 Oshawa                       415157.
 8 Toronto                     6130098.
 9 Hamilton                     777202.
10 St. Catharines – Niagara     424602.
# ℹ 13 more rows
```
…
#### Sort in descending order of the population size.

.scroll-output-80[
.tiny[

``` r
pumf %>% group_by(CMA) %>% 
  summarise(pop = sum(WEIGHT)) %>% 
  filter(CMA != "Other census metropolitan areas, census agglomerations and other geographies") %>% 
  arrange(desc(pop))
```

```
# A tibble: 23 × 2
   CMA                                     pop
   <fct>                                 <dbl>
 1 Toronto                            6130098.
 2 Montréal                           4210000.
 3 Vancouver                          2608986.
 4 Ottawa - Gatineau                  1478890.
 5 Calgary                            1467038.
 6 Edmonton                           1396903.
 7 Winnipeg                            822346.
 8 Québec                              818955.
 9 Hamilton                            777202.
10 Kitchener –  Cambridge –  Waterloo  573235.
# ℹ 13 more rows
```
…
